[api-updater (non-obsolete-error-filter)] 5/20/2021 2:12:33 AM : Starting C:/Program Files/Unity/Editor/2020.3.0f1/Editor/Data/Tools/ScriptUpdater/APIUpdater.NonObsoleteApiUpdaterDetector.exe
[api-updater (non-obsolete-error-filter)] 
----------------------------------
jit/startup time      : 190.9999ms
moved types parse time: 80ms
candidates parse time : 1ms
C# parse time         : 341ms
candidates check time : 49ms
console write time    : 1ms

[api-updater (non-obsolete-error-filter)] 5/20/2021 2:14:16 AM : Starting C:/Program Files/Unity/Editor/2020.3.0f1/Editor/Data/Tools/ScriptUpdater/APIUpdater.NonObsoleteApiUpdaterDetector.exe
[api-updater (non-obsolete-error-filter)] 
----------------------------------
jit/startup time      : 88.0249ms
moved types parse time: 73ms
candidates parse time : 1ms
C# parse time         : 278ms
candidates check time : 45ms
console write time    : 0ms

